Major League TagPro Player Analysis
…
# some top players changed their name between seasons
tagpro$player[tagpro$player %in% "ProTagonist_"] <- "protag"
tagpro$player[tagpro$player %in% c("Crippy", "crippy")] <- "badger"

tagpro

## # A tibble: 500 x 27
##    player       score minutes    pm  tags  pops grabs drops  hold captures
##    <chr>        <int>   <int> <int> <int> <int> <int> <int> <int>    <int>
##  1 Altiger       1462     360     9   357   551   507   459  4078       36
##  2 Blue Dream     143      40   - 5    34    76    67    60   469        4
##  3 Death Pickle  1579     400   -16   604   310   182   174  1461        7
##  4 BigBird       1680     400   - 4   550   284   170   158  1156        6
##  5 Vials         1295     400   -16   286   645   594   542  4400       41
##  6 Mr.Gone       1570     400   -16   557   411   226   212  1604       13
##  7 Sundown       1394     359   - 2   465   299   179   168  1575       10
##  8 dywz          1285     370   - 1   228   594   524   476  3945       46
##  9 yank          1374     344    21   421   289   181   162  1406       16
## 10 YAC            289      80     5    53   122   115   103   930       10
## # ... with 490 more rows, and 17 more variables: prevent <int>,
## #   returns <int>, pups <int>, pupscomp <int>, flaccids <int>,
## #   longholds <int>, handoff <int>, goodhandoff <int>, goregrab <int>,
## #   coregrab <int>, gohandoff <int>, cohandoff <int>, retinbase <int>,
## #   quickret <int>, saves <int>, holdagainst <int>, season <dbl>
…
The metric well use will combine and weight the offensive stats of captures-per-minute, captures, and hold, based on their contributions to an effective offensive performance.

tagpro_off <- tagpro %>%
  mutate(off_eff=scale(cpm) * 2 + scale(captures) * 5 + scale(hold) * 4)

tagpro_off <- tagpro_off %>%
  mutate(off_rank=rank(off_eff))

tagpro_off %>%
  filter(off_eff != 0) %>%
  select(player, off_rank, off_eff, season) %>%
  arrange(desc(off_rank)) %>%
  head(100)

## # A tibble: 100 x 4
##    player       off_rank off_eff season
##    <chr>           <dbl>   <dbl>  <dbl>
##  1 LEBRON*JAMES      494    42.8   10.0
##  2 protag            493    37.7   14.0
##  3 WarriOrs          492    35.7   14.0
##  4 Stojakovic        491    32.8   10.0
##  5 protag            490    31.7   10.0
##  6 GOOBR             489    29.3   14.0
##  7 Ball God          488    28.9   10.0
##  8 toasty.           487    28.5   11.0
##  9 Legman            486    28.0   10.0
## 10 fuckthecrc        485    26.4   14.0
## # ... with 90 more rows
…
We can perform the same analysis for defenders. This time well weigh returns-per-minute, kill-death-ratio, non-return-tags-per-minute, and returns accordingly into our metric. This will create an effective way of incorporating defensive stats into an overall defensive ranking.

tagpro_def <- tagpro %>%
  mutate(def_eff=scale(rpm) * 2 + scale(kdr) * 1 + scale(nrtpm) * 2 + scale(returns) * 4 + scale(prevent) * 4)

tagpro_def <- tagpro_def %>%
  mutate(def_rank=rank(def_eff))

tagpro_def %>%
  filter(def_eff != 0) %>%
  select(player, def_rank, def_eff, season) %>%
  arrange(desc(def_rank)) %>%
  head(100)

## # A tibble: 100 x 4
##    player       def_rank def_eff season
##    <chr>           <dbl>   <dbl>  <dbl>
##  1 GriefSeeds        492    35.5   10.0
##  2 Abe Lincoln       491    29.3   10.0
##  3 intercest         490    27.5   14.0
##  4 Sherrattinho      489    27.4   14.0
##  5 phreak            488    27.2   14.0
##  6 Syniikal          487    26.6   12.0
##  7 MEX               486    26.1   14.0
##  8 badger            485    26.1   14.0
##  9 toasty.           484    25.5   14.0
## 10 YoungSinatra      483    25.3   10.0
## # ... with 90 more rows
…
